{
  "base": "\t",
  "paths": {
    "source": {
      "config": "src/theme.config",
      "definitions": "src/definitions/",
      "site": "src/site/",
      "themes": "src/themes/"
    },
    "output": {
      "packaged": "out/",
      "uncompressed": "out/components/",
      "compressed": "out/components/",
      "themes": "out/themes/"
    },
    "clean": "dist/"
  },
  "permission": false,
  "autoInstall": false,
  "rtl": false,
  "components": ["site", "loader", "rail", "reveal", "step", "grid", "accordion", "rating", "search", "shape", "sidebar", "sticky", "tab", "state", "visibility"],
  "version": "2.4.2"
}